xof 0302txt 0032

// This file generated by quick3D 4.0
// For info go to: http://www.quick3D.com

template Header {
	<3D82AB43-62DA-11cf-AB39-0020AF71E433>
	WORD major;
	WORD minor;
	DWORD flags;
 }

template Vector {
	<3D82AB5E-62DA-11cf-AB39-0020AF71E433>
	FLOAT x;
	FLOAT y;
	FLOAT z;
 }

template Coords2d {
	<F6F23F44-7686-11cf-8F52-0040333594A3>
	FLOAT u;
	FLOAT v;
 }

template Matrix4x4 {
	<F6F23F45-7686-11cf-8F52-0040333594A3>
	array FLOAT matrix[16];
 }

template ColorRGBA {
	<35FF44E0-6C7C-11cf-8F52-0040333594A3>
	FLOAT red;
	FLOAT green;
	FLOAT blue;
	FLOAT alpha;
 }

template ColorRGB {
	<D3E16E81-7835-11cf-8F52-0040333594A3>
	FLOAT red;
	FLOAT green;
	FLOAT blue;
 }

template IndexedColor {
	<1630B820-7842-11cf-8F52-0040333594A3>
	DWORD index;
	ColorRGBA indexColor;
 }

template Boolean {
	<4885AE61-78E8-11cf-8F52-0040333594A3>
	WORD truefalse;
 }

template Boolean2d {
	<4885AE63-78E8-11cf-8F52-0040333594A3>
	Boolean u;
	Boolean v;
 }

template MaterialWrap {
	<4885AE60-78E8-11cf-8F52-0040333594A3>
	Boolean u;
	Boolean v;
 }

template TextureFilename {
	<A42790E1-7810-11cf-8F52-0040333594A3>
	STRING filename;
 }

template Material {
	<3D82AB4D-62DA-11cf-AB39-0020AF71E433>
	ColorRGBA faceColor;
	FLOAT power;
	ColorRGB specularColor;
	ColorRGB emissiveColor;
	[...]
 }

template MeshFace {
	<3D82AB5F-62DA-11cf-AB39-0020AF71E433>
	DWORD nFaceVertexIndices;
	array DWORD faceVertexIndices[nFaceVertexIndices];
 }

template MeshFaceWraps {
	<4885AE62-78E8-11cf-8F52-0040333594A3>
	DWORD nFaceWrapValues;
	Boolean2d faceWrapValues;
 }

template MeshTextureCoords {
	<F6F23F40-7686-11cf-8F52-0040333594A3>
	DWORD nTextureCoords;
	array Coords2d textureCoords[nTextureCoords];
 }

template MeshMaterialList {
	<F6F23F42-7686-11cf-8F52-0040333594A3>
	DWORD nMaterials;
	DWORD nFaceIndexes;
	array DWORD faceIndexes[nFaceIndexes];
	[Material]
 }

template MeshNormals {
	<F6F23F43-7686-11cf-8F52-0040333594A3>
	DWORD nNormals;
	array Vector normals[nNormals];
	DWORD nFaceNormals;
	array MeshFace faceNormals[nFaceNormals];
 }

template MeshVertexColors {
	<1630B821-7842-11cf-8F52-0040333594A3>
	DWORD nVertexColors;
	array IndexedColor vertexColors[nVertexColors];
 }

template Mesh {
	<3D82AB44-62DA-11cf-AB39-0020AF71E433>
	DWORD nVertices;
	array Vector vertices[nVertices];
	DWORD nFaces;
	array MeshFace faces[nFaces];
	[...]
 }

template FrameTransformMatrix {
	<F6F23F41-7686-11cf-8F52-0040333594A3>
	Matrix4x4 frameMatrix;
 }

template Frame {
	<3D82AB46-62DA-11cf-AB39-0020AF71E433>
	[...]
 }

template FloatKeys {
	<10DD46A9-775B-11cf-8F52-0040333594A3>
	DWORD nValues;
	array FLOAT values[nValues];
 }

template TimedFloatKeys {
	<F406B180-7B3B-11cf-8F52-0040333594A3>
	DWORD time;
	FloatKeys tfkeys;
 }

template AnimationKey {
	<10DD46A8-775B-11cf-8F52-0040333594A3>
	DWORD keyType;
	DWORD nKeys;
	array TimedFloatKeys keys[nKeys];
 }

template AnimationOptions {
	<E2BF56C0-840F-11cf-8F52-0040333594A3>
	DWORD openclosed;
	DWORD positionquality;
 }

template Animation {
	<3D82AB4F-62DA-11cf-AB39-0020AF71E433>
	[...]
 }

template AnimationSet {
	<3D82AB50-62DA-11cf-AB39-0020AF71E433>
	[Animation]
 }

Header {
 1;
 0;
 1;
}

Frame RootFrame {
 FrameTransformMatrix {
  1.000000, 0.000000, 0.000000, 0.000000,
  0.000000, 1.000000, 0.000000, 0.000000,
  0.000000, 0.000000, 1.000000, 0.000000,
  0.000000, 0.000000, 0.000000, 1.000000;;
 }
Frame Mesh1Frame {
 FrameTransformMatrix {
  1.000000, 0.000000, 0.000000, 0.000000,
  0.000000, 1.000000, 0.000000, 0.000000,
  0.000000, 0.000000, 1.000000, 0.000000,
  0.000000, 0.000000, 0.000000, 1.000000;;
 }
 Mesh Mesh1 {
  25;
  -70.578278; -69.801468; 140.000000;,
  -35.578278; -69.801468; 140.000000;,
  -0.578278; -69.801468; 140.000000;,
  34.421722; -69.801468; 140.000000;,
  69.421722; -69.801468; 140.000000;,
  -70.578278; -69.801468; 105.000000;,
  -35.578278; -69.801468; 105.000000;,
  -0.578278; -69.801468; 105.000000;,
  34.421722; -69.801468; 105.000000;,
  69.421722; -69.801468; 105.000000;,
  -70.578278; -69.801468; 70.000000;,
  -35.578278; -69.801468; 70.000000;,
  -0.578278; -69.801468; 70.000000;,
  34.421722; -69.801468; 70.000000;,
  69.421722; -69.801468; 70.000000;,
  -70.578278; -69.801468; 35.000000;,
  -35.578278; -69.801468; 35.000000;,
  -0.578278; -69.801468; 35.000000;,
  34.421722; -69.801468; 35.000000;,
  69.421722; -69.801468; 35.000000;,
  -70.578278; -69.801468; 0.000000;,
  -35.578278; -69.801468; 0.000000;,
  -0.578278; -69.801468; 0.000000;,
  34.421722; -69.801468; 0.000000;,
  69.421722; -69.801468; 0.000000;;
  32;
  3;5,0,6;,
  3;1,6,0;,
  3;6,1,7;,
  3;2,7,1;,
  3;7,2,8;,
  3;3,8,2;,
  3;8,3,9;,
  3;4,9,3;,
  3;10,5,11;,
  3;6,11,5;,
  3;11,6,12;,
  3;7,12,6;,
  3;12,7,13;,
  3;8,13,7;,
  3;13,8,14;,
  3;9,14,8;,
  3;15,10,16;,
  3;11,16,10;,
  3;16,11,17;,
  3;12,17,11;,
  3;17,12,18;,
  3;13,18,12;,
  3;18,13,19;,
  3;14,19,13;,
  3;20,15,21;,
  3;16,21,15;,
  3;21,16,22;,
  3;17,22,16;,
  3;22,17,23;,
  3;18,23,17;,
  3;23,18,24;,
  3;19,24,18;;
  MeshMaterialList {
   1;
   32;
   0,
   0,
   0,
   0,
   0,
   0,
   0,
   0,
   0,
   0,
   0,
   0,
   0,
   0,
   0,
   0,
   0,
   0,
   0,
   0,
   0,
   0,
   0,
   0,
   0,
   0,
   0,
   0,
   0,
   0,
   0,
   0;;
   Material {
    1.000000, 1.000000, 1.000000, 1.000000;;
    8.000000;
    1.000000, 1.000000, 1.000000;;
    1.000000, 1.000000, 1.000000;;
   }
  }
  MeshTextureCoords {
  25;
  0.000000; 0.000000;,
  0.250000; 0.000000;,
  0.500000; 0.000000;,
  0.750000; 0.000000;,
  1.000000; 0.000000;,
  0.000000; 0.250000;,
  0.250000; 0.250000;,
  0.500000; 0.250000;,
  0.750000; 0.250000;,
  1.000000; 0.250000;,
  0.000000; 0.500000;,
  0.250000; 0.500000;,
  0.500000; 0.500000;,
  0.750000; 0.500000;,
  1.000000; 0.500000;,
  0.000000; 0.750000;,
  0.250000; 0.750000;,
  0.500000; 0.750000;,
  0.750000; 0.750000;,
  1.000000; 0.750000;,
  0.000000; 1.000000;,
  0.250000; 1.000000;,
  0.500000; 1.000000;,
  0.750000; 1.000000;,
  1.000000; 1.000000;;
  }
 }
}
Frame Mesh2Frame {
 FrameTransformMatrix {
  1.000000, 0.000000, 0.000000, 0.000000,
  0.000000, 1.000000, 0.000000, 0.000000,
  0.000000, 0.000000, 1.000000, 0.000000,
  0.000000, 0.000000, 0.000000, 1.000000;;
 }
 Mesh Mesh2 {
  25;
  -70.198814; -70.100571; 0.000000;,
  -35.198807; -70.100571; 0.000000;,
  -0.198807; -70.100571; 0.000000;,
  34.801193; -70.100571; 0.000000;,
  69.801193; -70.100571; 0.000000;,
  -70.198814; -35.100574; 0.000000;,
  -35.198807; -35.100574; 0.000000;,
  -0.198807; -35.100574; 0.000000;,
  34.801193; -35.100574; 0.000000;,
  69.801193; -35.100574; 0.000000;,
  -70.198814; -0.100574; 0.000000;,
  -35.198807; -0.100574; 0.000000;,
  -0.198807; -0.100574; 0.000000;,
  34.801193; -0.100574; 0.000000;,
  69.801193; -0.100574; 0.000000;,
  -70.198814; 34.899426; 0.000000;,
  -35.198807; 34.899426; 0.000000;,
  -0.198807; 34.899426; 0.000000;,
  34.801193; 34.899426; 0.000000;,
  69.801193; 34.899426; 0.000000;,
  -70.198814; 69.899429; 0.000000;,
  -35.198807; 69.899429; 0.000000;,
  -0.198807; 69.899429; 0.000000;,
  34.801193; 69.899429; 0.000000;,
  69.801193; 69.899429; 0.000000;;
  32;
  3;5,0,6;,
  3;1,6,0;,
  3;6,1,7;,
  3;2,7,1;,
  3;7,2,8;,
  3;3,8,2;,
  3;8,3,9;,
  3;4,9,3;,
  3;10,5,11;,
  3;6,11,5;,
  3;11,6,12;,
  3;7,12,6;,
  3;12,7,13;,
  3;8,13,7;,
  3;13,8,14;,
  3;9,14,8;,
  3;15,10,16;,
  3;11,16,10;,
  3;16,11,17;,
  3;12,17,11;,
  3;17,12,18;,
  3;13,18,12;,
  3;18,13,19;,
  3;14,19,13;,
  3;20,15,21;,
  3;16,21,15;,
  3;21,16,22;,
  3;17,22,16;,
  3;22,17,23;,
  3;18,23,17;,
  3;23,18,24;,
  3;19,24,18;;
  MeshMaterialList {
   1;
   32;
   0,
   0,
   0,
   0,
   0,
   0,
   0,
   0,
   0,
   0,
   0,
   0,
   0,
   0,
   0,
   0,
   0,
   0,
   0,
   0,
   0,
   0,
   0,
   0,
   0,
   0,
   0,
   0,
   0,
   0,
   0,
   0;;
   Material {
    1.000000, 1.000000, 1.000000, 1.000000;;
    8.000000;
    1.000000, 1.000000, 1.000000;;
    1.000000, 1.000000, 1.000000;;
   }
  }
  MeshTextureCoords {
  25;
  0.000000; 0.000000;,
  0.250000; 0.000000;,
  0.500000; 0.000000;,
  0.750000; 0.000000;,
  1.000000; 0.000000;,
  0.000000; 0.250000;,
  0.250000; 0.250000;,
  0.500000; 0.250000;,
  0.750000; 0.250000;,
  1.000000; 0.250000;,
  0.000000; 0.500000;,
  0.250000; 0.500000;,
  0.500000; 0.500000;,
  0.750000; 0.500000;,
  1.000000; 0.500000;,
  0.000000; 0.750000;,
  0.250000; 0.750000;,
  0.500000; 0.750000;,
  0.750000; 0.750000;,
  1.000000; 0.750000;,
  0.000000; 1.000000;,
  0.250000; 1.000000;,
  0.500000; 1.000000;,
  0.750000; 1.000000;,
  1.000000; 1.000000;;
  }
 }
}
Frame Mesh3Frame {
 FrameTransformMatrix {
  1.000000, 0.000000, 0.000000, 0.000000,
  0.000000, 1.000000, 0.000000, 0.000000,
  0.000000, 0.000000, 1.000000, 0.000000,
  0.000000, 0.000000, 0.000000, 1.000000;;
 }
 Mesh Mesh3 {
  25;
  -70.598343; -70.299164; 0.000000;,
  -70.598343; -35.299164; 0.000000;,
  -70.598343; -0.299164; 0.000000;,
  -70.598351; 34.700836; 0.000000;,
  -70.598351; 69.700836; 0.000000;,
  -70.598343; -70.299164; 35.000000;,
  -70.598343; -35.299164; 35.000000;,
  -70.598343; -0.299164; 35.000000;,
  -70.598343; 34.700836; 35.000000;,
  -70.598351; 69.700836; 35.000000;,
  -70.598343; -70.299164; 70.000000;,
  -70.598343; -35.299164; 70.000000;,
  -70.598343; -0.299164; 70.000000;,
  -70.598343; 34.700836; 70.000000;,
  -70.598343; 69.700836; 70.000000;,
  -70.598335; -70.299164; 105.000000;,
  -70.598343; -35.299164; 105.000000;,
  -70.598343; -0.299164; 105.000000;,
  -70.598343; 34.700836; 105.000000;,
  -70.598343; 69.700836; 105.000000;,
  -70.598335; -70.299164; 140.000000;,
  -70.598335; -35.299164; 140.000000;,
  -70.598343; -0.299164; 140.000000;,
  -70.598343; 34.700836; 140.000000;,
  -70.598343; 69.700836; 140.000000;;
  32;
  3;5,0,6;,
  3;1,6,0;,
  3;6,1,7;,
  3;2,7,1;,
  3;7,2,8;,
  3;3,8,2;,
  3;8,3,9;,
  3;4,9,3;,
  3;10,5,11;,
  3;6,11,5;,
  3;11,6,12;,
  3;7,12,6;,
  3;12,7,13;,
  3;8,13,7;,
  3;13,8,14;,
  3;9,14,8;,
  3;15,10,16;,
  3;11,16,10;,
  3;16,11,17;,
  3;12,17,11;,
  3;17,12,18;,
  3;13,18,12;,
  3;18,13,19;,
  3;14,19,13;,
  3;20,15,21;,
  3;16,21,15;,
  3;21,16,22;,
  3;17,22,16;,
  3;22,17,23;,
  3;18,23,17;,
  3;23,18,24;,
  3;19,24,18;;
  MeshMaterialList {
   1;
   32;
   0,
   0,
   0,
   0,
   0,
   0,
   0,
   0,
   0,
   0,
   0,
   0,
   0,
   0,
   0,
   0,
   0,
   0,
   0,
   0,
   0,
   0,
   0,
   0,
   0,
   0,
   0,
   0,
   0,
   0,
   0,
   0;;
   Material {
    1.000000, 1.000000, 1.000000, 1.000000;;
    8.000000;
    1.000000, 1.000000, 1.000000;;
    1.000000, 1.000000, 1.000000;;
   }
  }
  MeshTextureCoords {
  25;
  0.000000; 0.000000;,
  0.250000; 0.000000;,
  0.500000; 0.000000;,
  0.750000; 0.000000;,
  1.000000; 0.000000;,
  0.000000; 0.250000;,
  0.250000; 0.250000;,
  0.500000; 0.250000;,
  0.750000; 0.250000;,
  1.000000; 0.250000;,
  0.000000; 0.500000;,
  0.250000; 0.500000;,
  0.500000; 0.500000;,
  0.750000; 0.500000;,
  1.000000; 0.500000;,
  0.000000; 0.750000;,
  0.250000; 0.750000;,
  0.500000; 0.750000;,
  0.750000; 0.750000;,
  1.000000; 0.750000;,
  0.000000; 1.000000;,
  0.250000; 1.000000;,
  0.500000; 1.000000;,
  0.750000; 1.000000;,
  1.000000; 1.000000;;
  }
 }
}
Frame Mesh4Frame {
 FrameTransformMatrix {
  1.000000, 0.000000, 0.000000, 0.000000,
  0.000000, 1.000000, 0.000000, 0.000000,
  0.000000, 0.000000, 1.000000, 0.000000,
  0.000000, 0.000000, 0.000000, 1.000000;;
 }
 Mesh Mesh4 {
  25;
  69.527649; -69.745132; 0.000000;,
  69.527649; -69.745132; 35.000000;,
  69.527649; -69.745132; 70.000000;,
  69.527649; -69.745132; 105.000000;,
  69.527649; -69.745132; 140.000000;,
  69.527649; -34.745129; 0.000000;,
  69.527649; -34.745129; 35.000000;,
  69.527649; -34.745129; 70.000000;,
  69.527649; -34.745129; 105.000000;,
  69.527649; -34.745129; 140.000000;,
  69.527649; 0.254871; 0.000000;,
  69.527649; 0.254871; 35.000000;,
  69.527649; 0.254871; 70.000000;,
  69.527649; 0.254871; 105.000000;,
  69.527649; 0.254871; 140.000000;,
  69.527649; 35.254871; 0.000000;,
  69.527649; 35.254871; 35.000000;,
  69.527649; 35.254871; 70.000000;,
  69.527649; 35.254871; 105.000000;,
  69.527649; 35.254871; 140.000000;,
  69.527649; 70.254868; 0.000000;,
  69.527649; 70.254868; 35.000000;,
  69.527649; 70.254868; 70.000000;,
  69.527649; 70.254868; 105.000000;,
  69.527649; 70.254868; 140.000000;;
  32;
  3;5,0,6;,
  3;1,6,0;,
  3;6,1,7;,
  3;2,7,1;,
  3;7,2,8;,
  3;3,8,2;,
  3;8,3,9;,
  3;4,9,3;,
  3;10,5,11;,
  3;6,11,5;,
  3;11,6,12;,
  3;7,12,6;,
  3;12,7,13;,
  3;8,13,7;,
  3;13,8,14;,
  3;9,14,8;,
  3;15,10,16;,
  3;11,16,10;,
  3;16,11,17;,
  3;12,17,11;,
  3;17,12,18;,
  3;13,18,12;,
  3;18,13,19;,
  3;14,19,13;,
  3;20,15,21;,
  3;16,21,15;,
  3;21,16,22;,
  3;17,22,16;,
  3;22,17,23;,
  3;18,23,17;,
  3;23,18,24;,
  3;19,24,18;;
  MeshMaterialList {
   1;
   32;
   0,
   0,
   0,
   0,
   0,
   0,
   0,
   0,
   0,
   0,
   0,
   0,
   0,
   0,
   0,
   0,
   0,
   0,
   0,
   0,
   0,
   0,
   0,
   0,
   0,
   0,
   0,
   0,
   0,
   0,
   0,
   0;;
   Material {
    1.000000, 1.000000, 1.000000, 1.000000;;
    8.000000;
    1.000000, 1.000000, 1.000000;;
    1.000000, 1.000000, 1.000000;;
   }
  }
  MeshTextureCoords {
  25;
  0.000000; 0.000000;,
  0.250000; 0.000000;,
  0.500000; 0.000000;,
  0.750000; 0.000000;,
  1.000000; 0.000000;,
  0.000000; 0.250000;,
  0.250000; 0.250000;,
  0.500000; 0.250000;,
  0.750000; 0.250000;,
  1.000000; 0.250000;,
  0.000000; 0.500000;,
  0.250000; 0.500000;,
  0.500000; 0.500000;,
  0.750000; 0.500000;,
  1.000000; 0.500000;,
  0.000000; 0.750000;,
  0.250000; 0.750000;,
  0.500000; 0.750000;,
  0.750000; 0.750000;,
  1.000000; 0.750000;,
  0.000000; 1.000000;,
  0.250000; 1.000000;,
  0.500000; 1.000000;,
  0.750000; 1.000000;,
  1.000000; 1.000000;;
  }
 }
}
Frame Mesh5Frame {
 FrameTransformMatrix {
  1.000000, 0.000000, 0.000000, 0.000000,
  0.000000, 1.000000, 0.000000, 0.000000,
  0.000000, 0.000000, 1.000000, 0.000000,
  0.000000, 0.000000, 0.000000, 1.000000;;
 }
 Mesh Mesh5 {
  25;
  -70.872261; 70.054924; 0.000000;,
  -35.872253; 70.054924; 0.000000;,
  -0.872253; 70.054924; 0.000000;,
  34.127747; 70.054924; 0.000000;,
  69.127747; 70.054924; 0.000000;,
  -70.872261; 70.054924; 35.000000;,
  -35.872253; 70.054924; 35.000000;,
  -0.872253; 70.054924; 35.000000;,
  34.127747; 70.054924; 35.000000;,
  69.127747; 70.054924; 35.000000;,
  -70.872261; 70.054924; 70.000000;,
  -35.872253; 70.054924; 70.000000;,
  -0.872253; 70.054924; 70.000000;,
  34.127747; 70.054924; 70.000000;,
  69.127747; 70.054924; 70.000000;,
  -70.872261; 70.054924; 105.000000;,
  -35.872253; 70.054924; 105.000000;,
  -0.872253; 70.054924; 105.000000;,
  34.127747; 70.054924; 105.000000;,
  69.127747; 70.054924; 105.000000;,
  -70.872261; 70.054924; 140.000000;,
  -35.872253; 70.054924; 140.000000;,
  -0.872253; 70.054924; 140.000000;,
  34.127747; 70.054924; 140.000000;,
  69.127747; 70.054924; 140.000000;;
  32;
  3;5,0,6;,
  3;1,6,0;,
  3;6,1,7;,
  3;2,7,1;,
  3;7,2,8;,
  3;3,8,2;,
  3;8,3,9;,
  3;4,9,3;,
  3;10,5,11;,
  3;6,11,5;,
  3;11,6,12;,
  3;7,12,6;,
  3;12,7,13;,
  3;8,13,7;,
  3;13,8,14;,
  3;9,14,8;,
  3;15,10,16;,
  3;11,16,10;,
  3;16,11,17;,
  3;12,17,11;,
  3;17,12,18;,
  3;13,18,12;,
  3;18,13,19;,
  3;14,19,13;,
  3;20,15,21;,
  3;16,21,15;,
  3;21,16,22;,
  3;17,22,16;,
  3;22,17,23;,
  3;18,23,17;,
  3;23,18,24;,
  3;19,24,18;;
  MeshMaterialList {
   1;
   32;
   0,
   0,
   0,
   0,
   0,
   0,
   0,
   0,
   0,
   0,
   0,
   0,
   0,
   0,
   0,
   0,
   0,
   0,
   0,
   0,
   0,
   0,
   0,
   0,
   0,
   0,
   0,
   0,
   0,
   0,
   0,
   0;;
   Material {
    1.000000, 1.000000, 1.000000, 1.000000;;
    8.000000;
    1.000000, 1.000000, 1.000000;;
    1.000000, 1.000000, 1.000000;;
   }
  }
  MeshTextureCoords {
  25;
  0.000000; 0.000000;,
  0.250000; 0.000000;,
  0.500000; 0.000000;,
  0.750000; 0.000000;,
  1.000000; 0.000000;,
  0.000000; 0.250000;,
  0.250000; 0.250000;,
  0.500000; 0.250000;,
  0.750000; 0.250000;,
  1.000000; 0.250000;,
  0.000000; 0.500000;,
  0.250000; 0.500000;,
  0.500000; 0.500000;,
  0.750000; 0.500000;,
  1.000000; 0.500000;,
  0.000000; 0.750000;,
  0.250000; 0.750000;,
  0.500000; 0.750000;,
  0.750000; 0.750000;,
  1.000000; 0.750000;,
  0.000000; 1.000000;,
  0.250000; 1.000000;,
  0.500000; 1.000000;,
  0.750000; 1.000000;,
  1.000000; 1.000000;;
  }
 }
}
Frame Mesh6Frame {
 FrameTransformMatrix {
  1.000000, 0.000000, 0.000000, 0.000000,
  0.000000, 1.000000, 0.000000, 0.000000,
  0.000000, 0.000000, 1.000000, 0.000000,
  0.000000, 0.000000, 0.000000, 1.000000;;
 }
 Mesh Mesh6 {
  25;
  69.801201; -70.100571; 140.000000;,
  34.801201; -70.100571; 140.000000;,
  -0.198801; -70.100571; 140.000000;,
  -35.198799; -70.100571; 140.000000;,
  -70.198807; -70.100586; 140.000000;,
  69.801193; -35.100567; 140.000000;,
  34.801197; -35.100571; 140.000000;,
  -0.198804; -35.100574; 140.000000;,
  -35.198803; -35.100578; 140.000000;,
  -70.198814; -35.100582; 140.000000;,
  69.801193; -0.100568; 140.000000;,
  34.801193; -0.100571; 140.000000;,
  -0.198807; -0.100574; 140.000000;,
  -35.198807; -0.100578; 140.000000;,
  -70.198814; -0.100581; 140.000000;,
  69.801193; 34.899433; 140.000000;,
  34.801189; 34.899429; 140.000000;,
  -0.198810; 34.899426; 140.000000;,
  -35.198811; 34.899422; 140.000000;,
  -70.198814; 34.899418; 140.000000;,
  69.801186; 69.899429; 140.000000;,
  34.801186; 69.899429; 140.000000;,
  -0.198813; 69.899429; 140.000000;,
  -35.198814; 69.899429; 140.000000;,
  -70.198814; 69.899414; 140.000000;;
  32;
  3;5,0,6;,
  3;1,6,0;,
  3;6,1,7;,
  3;2,7,1;,
  3;7,2,8;,
  3;3,8,2;,
  3;8,3,9;,
  3;4,9,3;,
  3;10,5,11;,
  3;6,11,5;,
  3;11,6,12;,
  3;7,12,6;,
  3;12,7,13;,
  3;8,13,7;,
  3;13,8,14;,
  3;9,14,8;,
  3;15,10,16;,
  3;11,16,10;,
  3;16,11,17;,
  3;12,17,11;,
  3;17,12,18;,
  3;13,18,12;,
  3;18,13,19;,
  3;14,19,13;,
  3;20,15,21;,
  3;16,21,15;,
  3;21,16,22;,
  3;17,22,16;,
  3;22,17,23;,
  3;18,23,17;,
  3;23,18,24;,
  3;19,24,18;;
  MeshMaterialList {
   1;
   32;
   0,
   0,
   0,
   0,
   0,
   0,
   0,
   0,
   0,
   0,
   0,
   0,
   0,
   0,
   0,
   0,
   0,
   0,
   0,
   0,
   0,
   0,
   0,
   0,
   0,
   0,
   0,
   0,
   0,
   0,
   0,
   0;;
   Material {
    1.000000, 1.000000, 1.000000, 1.000000;;
    8.000000;
    1.000000, 1.000000, 1.000000;;
    1.000000, 1.000000, 1.000000;;
   }
  }
  MeshTextureCoords {
  25;
  0.000000; 0.000000;,
  0.250000; 0.000000;,
  0.500000; 0.000000;,
  0.750000; 0.000000;,
  1.000000; 0.000000;,
  0.000000; 0.250000;,
  0.250000; 0.250000;,
  0.500000; 0.250000;,
  0.750000; 0.250000;,
  1.000000; 0.250000;,
  0.000000; 0.500000;,
  0.250000; 0.500000;,
  0.500000; 0.500000;,
  0.750000; 0.500000;,
  1.000000; 0.500000;,
  0.000000; 0.750000;,
  0.250000; 0.750000;,
  0.500000; 0.750000;,
  0.750000; 0.750000;,
  1.000000; 0.750000;,
  0.000000; 1.000000;,
  0.250000; 1.000000;,
  0.500000; 1.000000;,
  0.750000; 1.000000;,
  1.000000; 1.000000;;
  }
 }
}
}
